[gd_scene load_steps=6 format=2]

[ext_resource path="res://objects/FPSControl/FPSControl.tscn" type="PackedScene" id=1]
[ext_resource path="res://objects/WorldEnvMist.tscn" type="PackedScene" id=2]
[ext_resource path="res://objects/WorldCells/WorldCells.gd" type="Script" id=3]
[ext_resource path="res://scripts/main.gd" type="Script" id=4]

[sub_resource type="SphereMesh" id=1]
flip_faces = true
radius = 50.0
height = 100.0

[node name="main" type="Spatial"]
script = ExtResource( 4 )

[node name="FPSControl" parent="." instance=ExtResource( 1 )]
transform = Transform( 1, 0, 0, 0, 1, 0, 0, 0, 1, 2.258, 1.501, 0 )
lock_y = true

[node name="MeshInstance" type="MeshInstance" parent="FPSControl"]
mesh = SubResource( 1 )
material/0 = null

[node name="WorldCells" type="Spatial" parent="."]
script = ExtResource( 3 )
player_path = NodePath("../FPSControl")

[node name="Hidden" type="Spatial" parent="."]

[node name="WorldEnvironment" parent="." instance=ExtResource( 2 )]

[node name="Control" type="Control" parent="."]
margin_right = 1020.0
margin_bottom = 599.0
__meta__ = {
"_edit_use_anchors_": false
}

[node name="Label" type="Label" parent="Control"]
margin_left = 8.0
margin_top = 8.0
margin_right = 140.0
margin_bottom = 22.0
text = "1111"
