[gd_resource type="ShaderMaterial" load_steps=5 format=2]

[ext_resource path="res://objects/WaterTest/cloud.png" type="Texture" id=1]
[ext_resource path="res://objects/WaterTest/noise.png" type="Texture" id=2]
[ext_resource path="res://objects/WaterTest/f_water.jpg" type="Texture" id=3]

[sub_resource type="Shader" id=1]
code = "shader_type spatial;
//render_mode unshaded;
render_mode blend_mix;

uniform sampler2D noise_tex;
uniform sampler2D displ_tex;
uniform sampler2D f_tex;
uniform vec4 top_light_color : hint_color;
uniform vec4 top_dark_color : hint_color;
uniform float displ_amount = 0.02;
uniform float bottom_foam_threshhold = 0.48;
uniform float speed = 0.25;
uniform float transp = 0.6;


void fragment() {
	vec2 displ = texture(displ_tex, UV- TIME / 8.0).rg;
	displ = ((displ * 2.0) - 1.0) * displ_amount;
	
	float noise = texture(noise_tex, vec2(UV.x, UV.y- TIME * speed) + displ * 2.0).r;
	noise = round(noise * 8.0) / 4.0;
	
	float noise2 = texture(noise_tex, vec2(UV.x - TIME * speed * 2.0, UV.y - TIME * speed * 2.0)).r;
	float flow = texture(f_tex, vec2(UV.x, UV.y) * 2.0 + displ * 2.0).r;
	flow = flow / noise2;
	
	vec4 col = mix(top_dark_color, top_light_color, noise) + flow * 0.1;
//	col = mix(vec4(1,1,1,1), col, step(UV.y + displ.y, bottom_foam_threshhold));
	ALBEDO = col.rgb;
	ALPHA = transp;
	ROUGHNESS = 0.5;
}

"

[resource]
shader = SubResource( 1 )
shader_param/top_light_color = Color( 0.184314, 0.670588, 0.670588, 1 )
shader_param/top_dark_color = Color( 0.262745, 0.839216, 0.839216, 1 )
shader_param/displ_amount = 0.02
shader_param/bottom_foam_threshhold = 0.48
shader_param/speed = 0.02
shader_param/transp = 0.831
shader_param/noise_tex = ExtResource( 1 )
shader_param/displ_tex = ExtResource( 2 )
shader_param/f_tex = ExtResource( 3 )
